[
  {
    "ServiceName": "aws.sagemaker.us-west-1.notebook",
    "ServiceId": "vpce-svc-0cbffd4cce649fbb4",
    "ServiceType": [
      {
        "ServiceType": "Interface"
      }
    ],
    "AvailabilityZones": [
      "us-west-1b",
      "us-west-1c"
    ],
    "Owner": "amazon",
    "BaseEndpointDnsNames": [
      "vpce-svc-0cbffd4cce649fbb4.us-west-1.vpce.amazonaws.com",
      "notebook.us-west-1.vpce.sagemaker.aws"
    ],
    "PrivateDnsName": "*.notebook.us-west-1.sagemaker.aws",
    "PrivateDnsNames": [
      {
        "PrivateDnsName": "*.notebook.us-west-1.sagemaker.aws"
      }
    ],
    "VpcEndpointPolicySupported": true,
    "AcceptanceRequired": false,
    "ManagesVpcEndpoints": false,
    "Tags": [],
    "PrivateDnsNameVerificationState": "verified"
  },
  {
    "ServiceName": "aws.sagemaker.us-west-1.studio",
    "ServiceId": "vpce-svc-0aeee63220f3210eb",
    "ServiceType": [
      {
        "ServiceType": "Interface"
      }
    ],
    "AvailabilityZones": [
      "us-west-1b",
      "us-west-1c"
    ],
    "Owner": "amazon",
    "BaseEndpointDnsNames": [
      "vpce-svc-0aeee63220f3210eb.us-west-1.vpce.amazonaws.com",
      "studio.us-west-1.vpce.sagemaker.aws"
    ],
    "PrivateDnsName": "*.studio.us-west-1.sagemaker.aws",
    "PrivateDnsNames": [
      {
        "PrivateDnsName": "*.studio.us-west-1.sagemaker.aws"
      }
    ],
    "VpcEndpointPolicySupported": true,
    "AcceptanceRequired": false,
    "ManagesVpcEndpoints": false,
    "Tags": [],
    "PrivateDnsNameVerificationState": "verified"
  },
  {
    "ServiceName": "com.amazonaws.s3-global.accesspoint",
    "ServiceId": "vpce-svc-01cad156c4bd30d0b",
    "ServiceType": [
      {
        "ServiceType": "Interface"
      }
    ],
    "AvailabilityZones": [
      "us-west-1b",
      "us-west-1c"
    ],
    "Owner": "amazon",
    "BaseEndpointDnsNames": [
      "accesspoint.s3-global.us-west-1.vpce.amazonaws.com"
    ],
    "PrivateDnsName": "*.accesspoint.s3-global.amazonaws.com",
    "PrivateDnsNames": [
      {
        "PrivateDnsName": "*.accesspoint.s3-global.amazonaws.com"
      }
    ],
    "VpcEndpointPolicySupported": true,
    "AcceptanceRequired": false,
    "ManagesVpcEndpoints": false,
    "Tags": [],
    "PrivateDnsNameVerificationState": "verified"
  },
  {
    "ServiceName": "com.amazonaws.us-west-1.access-analyzer",
    "ServiceId": "vpce-svc-00a00eba6d077cc15",
    "ServiceType": [
      {
        "ServiceType": "Interface"
      }
    ],
    "AvailabilityZones": [
      "us-west-1b",
      "us-west-1c"
    ],
    "Owner": "amazon",
    "BaseEndpointDnsNames": [
      "access-analyzer.us-west-1.vpce.amazonaws.com"
    ],
    "PrivateDnsName": "access-analyzer.us-west-1.amazonaws.com",
    "PrivateDnsNames": [
      {
        "PrivateDnsName": "access-analyzer.us-west-1.amazonaws.com"
      }
    ],
    "VpcEndpointPolicySupported": true,
    "AcceptanceRequired": false,
    "ManagesVpcEndpoints": false,
    "Tags": [],
    "PrivateDnsNameVerificationState": "verified"
  },
  {
    "ServiceName": "com.amazonaws.us-west-1.acm-pca",
    "ServiceId": "vpce-svc-02fe618b9d84b4346",
    "ServiceType": [
      {
        "ServiceType": "Interface"
      }
    ],
    "AvailabilityZones": [
      "us-west-1b",
      "us-west-1c"
    ],
    "Owner": "amazon",
    "BaseEndpointDnsNames": [
      "acm-pca.us-west-1.vpce.amazonaws.com"
    ],
    "PrivateDnsName": "acm-pca.us-west-1.amazonaws.com",
    "PrivateDnsNames": [
      {
        "PrivateDnsName": "acm-pca.us-west-1.amazonaws.com"
      }
    ],
    "VpcEndpointPolicySupported": true,
    "AcceptanceRequired": false,
    "ManagesVpcEndpoints": false,
    "Tags": [],
    "PrivateDnsNameVerificationState": "verified"
  },
  {
    "ServiceName": "com.amazonaws.us-west-1.application-autoscaling",
    "ServiceId": "vpce-svc-0ba76b485120964a4",
    "ServiceType": [
      {
        "ServiceType": "Interface"
      }
    ],
    "AvailabilityZones": [
      "us-west-1b",
      "us-west-1c"
    ],
    "Owner": "amazon",
    "BaseEndpointDnsNames": [
      "application-autoscaling.us-west-1.vpce.amazonaws.com"
    ],
    "PrivateDnsName": "application-autoscaling.us-west-1.amazonaws.com",
    "PrivateDnsNames": [
      {
        "PrivateDnsName": "application-autoscaling.us-west-1.amazonaws.com"
      }
    ],
    "VpcEndpointPolicySupported": true,
    "AcceptanceRequired": false,
    "ManagesVpcEndpoints": false,
    "Tags": [],
    "PrivateDnsNameVerificationState": "verified"
  },
  {
    "ServiceName": "com.amazonaws.us-west-1.appmesh-envoy-management",
    "ServiceId": "vpce-svc-054cd360688982f79",
    "ServiceType": [
      {
        "ServiceType": "Interface"
      }
    ],
    "AvailabilityZones": [
      "us-west-1b",
      "us-west-1c"
    ],
    "Owner": "amazon",
    "BaseEndpointDnsNames": [
      "appmesh-envoy-management.us-west-1.vpce.amazonaws.com"
    ],
    "PrivateDnsName": "appmesh-envoy-management.us-west-1.amazonaws.com",
    "PrivateDnsNames": [
      {
        "PrivateDnsName": "appmesh-envoy-management.us-west-1.amazonaws.com"
      }
    ],
    "VpcEndpointPolicySupported": false,
    "AcceptanceRequired": false,
    "ManagesVpcEndpoints": false,
    "Tags": [],
    "PrivateDnsNameVerificationState": "verified"
  },
  {
    "ServiceName": "com.amazonaws.us-west-1.athena",
    "ServiceId": "vpce-svc-08d6b4ca82b9e09aa",
    "ServiceType": [
      {
        "ServiceType": "Interface"
      }
    ],
    "AvailabilityZones": [
      "us-west-1b",
      "us-west-1c"
    ],
    "Owner": "amazon",
    "BaseEndpointDnsNames": [
      "athena.us-west-1.vpce.amazonaws.com"
    ],
    "PrivateDnsName": "athena.us-west-1.amazonaws.com",
    "PrivateDnsNames": [
      {
        "PrivateDnsName": "athena.us-west-1.amazonaws.com"
      }
    ],
    "VpcEndpointPolicySupported": true,
    "AcceptanceRequired": false,
    "ManagesVpcEndpoints": false,
    "Tags": [],
    "PrivateDnsNameVerificationState": "verified"
  },
  {
    "ServiceName": "com.amazonaws.us-west-1.auditmanager",
    "ServiceId": "vpce-svc-0e05bd128f13e5a7a",
    "ServiceType": [
      {
        "ServiceType": "Interface"
      }
    ],
    "AvailabilityZones": [
      "us-west-1b",
      "us-west-1c"
    ],
    "Owner": "amazon",
    "BaseEndpointDnsNames": [
      "auditmanager.us-west-1.vpce.amazonaws.com"
    ],
    "PrivateDnsName": "auditmanager.us-west-1.amazonaws.com",
    "PrivateDnsNames": [
      {
        "PrivateDnsName": "auditmanager.us-west-1.amazonaws.com"
      }
    ],
    "VpcEndpointPolicySupported": true,
    "AcceptanceRequired": false,
    "ManagesVpcEndpoints": false,
    "Tags": [],
    "PrivateDnsNameVerificationState": "verified"
  },
  {
    "ServiceName": "com.amazonaws.us-west-1.autoscaling",
    "ServiceId": "vpce-svc-0aff1174f81eba150",
    "ServiceType": [
      {
        "ServiceType": "Interface"
      }
    ],
    "AvailabilityZones": [
      "us-west-1b",
      "us-west-1c"
    ],
    "Owner": "amazon",
    "BaseEndpointDnsNames": [
      "autoscaling.us-west-1.vpce.amazonaws.com"
    ],
    "PrivateDnsName": "autoscaling.us-west-1.amazonaws.com",
    "PrivateDnsNames": [
      {
        "PrivateDnsName": "autoscaling.us-west-1.amazonaws.com"
      }
    ],
    "VpcEndpointPolicySupported": true,
    "AcceptanceRequired": false,
    "ManagesVpcEndpoints": false,
    "Tags": [],
    "PrivateDnsNameVerificationState": "verified"
  },
  {
    "ServiceName": "com.amazonaws.us-west-1.autoscaling-plans",
    "ServiceId": "vpce-svc-0a8eb2d062f9a40ba",
    "ServiceType": [
      {
        "ServiceType": "Interface"
      }
    ],
    "AvailabilityZones": [
      "us-west-1b",
      "us-west-1c"
    ],
    "Owner": "amazon",
    "BaseEndpointDnsNames": [
      "autoscaling-plans.us-west-1.vpce.amazonaws.com"
    ],
    "PrivateDnsName": "autoscaling-plans.us-west-1.amazonaws.com",
    "PrivateDnsNames": [
      {
        "PrivateDnsName": "autoscaling-plans.us-west-1.amazonaws.com"
      }
    ],
    "VpcEndpointPolicySupported": true,
    "AcceptanceRequired": false,
    "ManagesVpcEndpoints": false,
    "Tags": [],
    "PrivateDnsNameVerificationState": "verified"
  },
  {
    "ServiceName": "com.amazonaws.us-west-1.awsconnector",
    "ServiceId": "vpce-svc-087cb6a39899e9023",
    "ServiceType": [
      {
        "ServiceType": "Interface"
      }
    ],
    "AvailabilityZones": [
      "us-west-1b",
      "us-west-1c"
    ],
    "Owner": "amazon",
    "BaseEndpointDnsNames": [
      "awsconnector.us-west-1.vpce.amazonaws.com"
    ],
    "PrivateDnsName": "awsconnector.us-west-1.amazonaws.com",
    "PrivateDnsNames": [
      {
        "PrivateDnsName": "awsconnector.us-west-1.amazonaws.com"
      }
    ],
    "VpcEndpointPolicySupported": false,
    "AcceptanceRequired": false,
    "ManagesVpcEndpoints": false,
    "Tags": [],
    "PrivateDnsNameVerificationState": "verified"
  },
  {
    "ServiceName": "com.amazonaws.us-west-1.backup",
    "ServiceId": "vpce-svc-0e9ce71283de77280",
    "ServiceType": [
      {
        "ServiceType": "Interface"
      }
    ],
    "AvailabilityZones": [
      "us-west-1b",
      "us-west-1c"
    ],
    "Owner": "amazon",
    "BaseEndpointDnsNames": [
      "backup.us-west-1.vpce.amazonaws.com"
    ],
    "PrivateDnsName": "backup.us-west-1.amazonaws.com",
    "PrivateDnsNames": [
      {
        "PrivateDnsName": "backup.us-west-1.amazonaws.com"
      }
    ],
    "VpcEndpointPolicySupported": true,
    "AcceptanceRequired": false,
    "ManagesVpcEndpoints": false,
    "Tags": [],
    "PrivateDnsNameVerificationState": "verified"
  },
  {
    "ServiceName": "com.amazonaws.us-west-1.batch",
    "ServiceId": "vpce-svc-00606e0ea3484767c",
    "ServiceType": [
      {
        "ServiceType": "Interface"
      }
    ],
    "AvailabilityZones": [
      "us-west-1b",
      "us-west-1c"
    ],
    "Owner": "amazon",
    "BaseEndpointDnsNames": [
      "batch.us-west-1.vpce.amazonaws.com"
    ],
    "PrivateDnsName": "batch.us-west-1.amazonaws.com",
    "PrivateDnsNames": [
      {
        "PrivateDnsName": "batch.us-west-1.amazonaws.com"
      }
    ],
    "VpcEndpointPolicySupported": true,
    "AcceptanceRequired": false,
    "ManagesVpcEndpoints": false,
    "Tags": [],
    "PrivateDnsNameVerificationState": "verified"
  },
  {
    "ServiceName": "com.amazonaws.us-west-1.braket",
    "ServiceId": "vpce-svc-05bc4960ad74d613b",
    "ServiceType": [
      {
        "ServiceType": "Interface"
      }
    ],
    "AvailabilityZones": [
      "us-west-1b",
      "us-west-1c"
    ],
    "Owner": "amazon",
    "BaseEndpointDnsNames": [
      "braket.us-west-1.vpce.amazonaws.com"
    ],
    "PrivateDnsName": "braket.us-west-1.amazonaws.com",
    "PrivateDnsNames": [
      {
        "PrivateDnsName": "braket.us-west-1.amazonaws.com"
      }
    ],
    "VpcEndpointPolicySupported": true,
    "AcceptanceRequired": false,
    "ManagesVpcEndpoints": false,
    "Tags": [],
    "PrivateDnsNameVerificationState": "verified"
  },
  {
    "ServiceName": "com.amazonaws.us-west-1.cassandra",
    "ServiceId": "vpce-svc-03f8c2456052d9eec",
    "ServiceType": [
      {
        "ServiceType": "Interface"
      }
    ],
    "AvailabilityZones": [
      "us-west-1b",
      "us-west-1c"
    ],
    "Owner": "amazon",
    "BaseEndpointDnsNames": [
      "cassandra.us-west-1.vpce.amazonaws.com"
    ],
    "PrivateDnsName": "cassandra.us-west-1.amazonaws.com",
    "PrivateDnsNames": [
      {
        "PrivateDnsName": "cassandra.us-west-1.amazonaws.com"
      }
    ],
    "VpcEndpointPolicySupported": true,
    "AcceptanceRequired": false,
    "ManagesVpcEndpoints": false,
    "Tags": [],
    "PrivateDnsNameVerificationState": "verified"
  },
  {
    "ServiceName": "com.amazonaws.us-west-1.cloudformation",
    "ServiceId": "vpce-svc-0e4307d45fbed6c34",
    "ServiceType": [
      {
        "ServiceType": "Interface"
      }
    ],
    "AvailabilityZones": [
      "us-west-1b",
      "us-west-1c"
    ],
    "Owner": "amazon",
    "BaseEndpointDnsNames": [
      "cloudformation.us-west-1.vpce.amazonaws.com"
    ],
    "PrivateDnsName": "cloudformation.us-west-1.amazonaws.com",
    "PrivateDnsNames": [
      {
        "PrivateDnsName": "cloudformation.us-west-1.amazonaws.com"
      }
    ],
    "VpcEndpointPolicySupported": true,
    "AcceptanceRequired": false,
    "ManagesVpcEndpoints": false,
    "Tags": [],
    "PrivateDnsNameVerificationState": "verified"
  },
  {
    "ServiceName": "com.amazonaws.us-west-1.cloudhsmv2",
    "ServiceId": "vpce-svc-0342abc036d29f0c7",
    "ServiceType": [
      {
        "ServiceType": "Interface"
      }
    ],
    "AvailabilityZones": [
      "us-west-1b",
      "us-west-1c"
    ],
    "Owner": "amazon",
    "BaseEndpointDnsNames": [
      "cloudhsmv2.us-west-1.vpce.amazonaws.com"
    ],
    "PrivateDnsName": "cloudhsmv2.us-west-1.amazonaws.com",
    "PrivateDnsNames": [
      {
        "PrivateDnsName": "cloudhsmv2.us-west-1.amazonaws.com"
      }
    ],
    "VpcEndpointPolicySupported": true,
    "AcceptanceRequired": false,
    "ManagesVpcEndpoints": false,
    "Tags": [],
    "PrivateDnsNameVerificationState": "verified"
  },
  {
    "ServiceName": "com.amazonaws.us-west-1.cloudtrail",
    "ServiceId": "vpce-svc-0ccc7dd1f08743f8f",
    "ServiceType": [
      {
        "ServiceType": "Interface"
      }
    ],
    "AvailabilityZones": [
      "us-west-1b",
      "us-west-1c"
    ],
    "Owner": "amazon",
    "BaseEndpointDnsNames": [
      "cloudtrail.us-west-1.vpce.amazonaws.com"
    ],
    "PrivateDnsName": "cloudtrail.us-west-1.amazonaws.com",
    "PrivateDnsNames": [
      {
        "PrivateDnsName": "cloudtrail.us-west-1.amazonaws.com"
      }
    ],
    "VpcEndpointPolicySupported": false,
    "AcceptanceRequired": false,
    "ManagesVpcEndpoints": false,
    "Tags": [],
    "PrivateDnsNameVerificationState": "verified"
  },
  {
    "ServiceName": "com.amazonaws.us-west-1.codebuild",
    "ServiceId": "vpce-svc-039c8439eccd5bb88",
    "ServiceType": [
      {
        "ServiceType": "Interface"
      }
    ],
    "AvailabilityZones": [
      "us-west-1b",
      "us-west-1c"
    ],
    "Owner": "amazon",
    "BaseEndpointDnsNames": [
      "codebuild.us-west-1.vpce.amazonaws.com"
    ],
    "PrivateDnsName": "codebuild.us-west-1.amazonaws.com",
    "PrivateDnsNames": [
      {
        "PrivateDnsName": "codebuild.us-west-1.amazonaws.com"
      }
    ],
    "VpcEndpointPolicySupported": true,
    "AcceptanceRequired": false,
    "ManagesVpcEndpoints": false,
    "Tags": [],
    "PrivateDnsNameVerificationState": "verified"
  },
  {
    "ServiceName": "com.amazonaws.us-west-1.codebuild-fips",
    "ServiceId": "vpce-svc-00fb2d0e2ad489d0f",
    "ServiceType": [
      {
        "ServiceType": "Interface"
      }
    ],
    "AvailabilityZones": [
      "us-west-1b",
      "us-west-1c"
    ],
    "Owner": "amazon",
    "BaseEndpointDnsNames": [
      "codebuild-fips.us-west-1.vpce.amazonaws.com"
    ],
    "PrivateDnsName": "codebuild-fips.us-west-1.amazonaws.com",
    "PrivateDnsNames": [
      {
        "PrivateDnsName": "codebuild-fips.us-west-1.amazonaws.com"
      }
    ],
    "VpcEndpointPolicySupported": true,
    "AcceptanceRequired": false,
    "ManagesVpcEndpoints": false,
    "Tags": [],
    "PrivateDnsNameVerificationState": "verified"
  },
  {
    "ServiceName": "com.amazonaws.us-west-1.codecommit",
    "ServiceId": "vpce-svc-06a9a96f4a9a14c03",
    "ServiceType": [
      {
        "ServiceType": "Interface"
      }
    ],
    "AvailabilityZones": [
      "us-west-1b",
      "us-west-1c"
    ],
    "Owner": "amazon",
    "BaseEndpointDnsNames": [
      "codecommit.us-west-1.vpce.amazonaws.com"
    ],
    "PrivateDnsName": "codecommit.us-west-1.amazonaws.com",
    "PrivateDnsNames": [
      {
        "PrivateDnsName": "codecommit.us-west-1.amazonaws.com"
      }
    ],
    "VpcEndpointPolicySupported": true,
    "AcceptanceRequired": false,
    "ManagesVpcEndpoints": false,
    "Tags": [],
    "PrivateDnsNameVerificationState": "verified"
  },
  {
    "ServiceName": "com.amazonaws.us-west-1.codecommit-fips",
    "ServiceId": "vpce-svc-0afcf4ab09fe2404e",
    "ServiceType": [
      {
        "ServiceType": "Interface"
      }
    ],
    "AvailabilityZones": [
      "us-west-1b",
      "us-west-1c"
    ],
    "Owner": "amazon",
    "BaseEndpointDnsNames": [
      "codecommit-fips.us-west-1.vpce.amazonaws.com"
    ],
    "PrivateDnsName": "codecommit-fips.us-west-1.amazonaws.com",
    "PrivateDnsNames": [
      {
        "PrivateDnsName": "codecommit-fips.us-west-1.amazonaws.com"
      }
    ],
    "VpcEndpointPolicySupported": true,
    "AcceptanceRequired": false,
    "ManagesVpcEndpoints": false,
    "Tags": [],
    "PrivateDnsNameVerificationState": "verified"
  },
  {
    "ServiceName": "com.amazonaws.us-west-1.codedeploy",
    "ServiceId": "vpce-svc-0ee5c441414049368",
    "ServiceType": [
      {
        "ServiceType": "Interface"
      }
    ],
    "AvailabilityZones": [
      "us-west-1b",
      "us-west-1c"
    ],
    "Owner": "amazon",
    "BaseEndpointDnsNames": [
      "codedeploy.us-west-1.vpce.amazonaws.com"
    ],
    "PrivateDnsName": "codedeploy.us-west-1.amazonaws.com",
    "PrivateDnsNames": [
      {
        "PrivateDnsName": "codedeploy.us-west-1.amazonaws.com"
      }
    ],
    "VpcEndpointPolicySupported": true,
    "AcceptanceRequired": false,
    "ManagesVpcEndpoints": false,
    "Tags": [],
    "PrivateDnsNameVerificationState": "verified"
  },
  {
    "ServiceName": "com.amazonaws.us-west-1.codedeploy-commands-secure",
    "ServiceId": "vpce-svc-056fcbcb8ac77e1f7",
    "ServiceType": [
      {
        "ServiceType": "Interface"
      }
    ],
    "AvailabilityZones": [
      "us-west-1b",
      "us-west-1c"
    ],
    "Owner": "amazon",
    "BaseEndpointDnsNames": [
      "codedeploy-commands-secure.us-west-1.vpce.amazonaws.com"
    ],
    "PrivateDnsName": "codedeploy-commands-secure.us-west-1.amazonaws.com",
    "PrivateDnsNames": [
      {
        "PrivateDnsName": "codedeploy-commands-secure.us-west-1.amazonaws.com"
      }
    ],
    "VpcEndpointPolicySupported": true,
    "AcceptanceRequired": false,
    "ManagesVpcEndpoints": false,
    "Tags": [],
    "PrivateDnsNameVerificationState": "verified"
  },
  {
    "ServiceName": "com.amazonaws.us-west-1.codepipeline",
    "ServiceId": "vpce-svc-0809e25523026441a",
    "ServiceType": [
      {
        "ServiceType": "Interface"
      }
    ],
    "AvailabilityZones": [
      "us-west-1b",
      "us-west-1c"
    ],
    "Owner": "amazon",
    "BaseEndpointDnsNames": [
      "codepipeline.us-west-1.vpce.amazonaws.com"
    ],
    "PrivateDnsName": "codepipeline.us-west-1.amazonaws.com",
    "PrivateDnsNames": [
      {
        "PrivateDnsName": "codepipeline.us-west-1.amazonaws.com"
      }
    ],
    "VpcEndpointPolicySupported": false,
    "AcceptanceRequired": false,
    "ManagesVpcEndpoints": false,
    "Tags": [],
    "PrivateDnsNameVerificationState": "verified"
  },
  {
    "ServiceName": "com.amazonaws.us-west-1.codestar-connections.api",
    "ServiceId": "vpce-svc-0005b2b3057179752",
    "ServiceType": [
      {
        "ServiceType": "Interface"
      }
    ],
    "AvailabilityZones": [
      "us-west-1b",
      "us-west-1c"
    ],
    "Owner": "amazon",
    "BaseEndpointDnsNames": [
      "api.codestar-connections.us-west-1.vpce.amazonaws.com"
    ],
    "PrivateDnsName": "codestar-connections.us-west-1.amazonaws.com",
    "PrivateDnsNames": [
      {
        "PrivateDnsName": "codestar-connections.us-west-1.amazonaws.com"
      }
    ],
    "VpcEndpointPolicySupported": true,
    "AcceptanceRequired": false,
    "ManagesVpcEndpoints": false,
    "Tags": [],
    "PrivateDnsNameVerificationState": "verified"
  },
  {
    "ServiceName": "com.amazonaws.us-west-1.config",
    "ServiceId": "vpce-svc-04f2c1272a87242b7",
    "ServiceType": [
      {
        "ServiceType": "Interface"
      }
    ],
    "AvailabilityZones": [
      "us-west-1b",
      "us-west-1c"
    ],
    "Owner": "amazon",
    "BaseEndpointDnsNames": [
      "config.us-west-1.vpce.amazonaws.com"
    ],
    "PrivateDnsName": "config.us-west-1.amazonaws.com",
    "PrivateDnsNames": [
      {
        "PrivateDnsName": "config.us-west-1.amazonaws.com"
      }
    ],
    "VpcEndpointPolicySupported": true,
    "AcceptanceRequired": false,
    "ManagesVpcEndpoints": false,
    "Tags": [],
    "PrivateDnsNameVerificationState": "verified"
  },
  {
    "ServiceName": "com.amazonaws.us-west-1.databrew",
    "ServiceId": "vpce-svc-027c9b77ade7c971f",
    "ServiceType": [
      {
        "ServiceType": "Interface"
      }
    ],
    "AvailabilityZones": [
      "us-west-1b",
      "us-west-1c"
    ],
    "Owner": "amazon",
    "BaseEndpointDnsNames": [
      "databrew.us-west-1.vpce.amazonaws.com"
    ],
    "PrivateDnsName": "databrew.us-west-1.amazonaws.com",
    "PrivateDnsNames": [
      {
        "PrivateDnsName": "databrew.us-west-1.amazonaws.com"
      }
    ],
    "VpcEndpointPolicySupported": true,
    "AcceptanceRequired": false,
    "ManagesVpcEndpoints": false,
    "Tags": [],
    "PrivateDnsNameVerificationState": "verified"
  },
  {
    "ServiceName": "com.amazonaws.us-west-1.dataexchange",
    "ServiceId": "vpce-svc-0d74f8e32e071ad7d",
    "ServiceType": [
      {
        "ServiceType": "Interface"
      }
    ],
    "AvailabilityZones": [
      "us-west-1b",
      "us-west-1c"
    ],
    "Owner": "amazon",
    "BaseEndpointDnsNames": [
      "dataexchange.us-west-1.vpce.amazonaws.com"
    ],
    "PrivateDnsName": "dataexchange.us-west-1.amazonaws.com",
    "PrivateDnsNames": [
      {
        "PrivateDnsName": "dataexchange.us-west-1.amazonaws.com"
      }
    ],
    "VpcEndpointPolicySupported": true,
    "AcceptanceRequired": false,
    "ManagesVpcEndpoints": false,
    "Tags": [],
    "PrivateDnsNameVerificationState": "verified"
  },
  {
    "ServiceName": "com.amazonaws.us-west-1.datasync",
    "ServiceId": "vpce-svc-0f32f5ffb5304291a",
    "ServiceType": [
      {
        "ServiceType": "Interface"
      }
    ],
    "AvailabilityZones": [
      "us-west-1b",
      "us-west-1c"
    ],
    "Owner": "amazon",
    "BaseEndpointDnsNames": [
      "datasync.us-west-1.vpce.amazonaws.com"
    ],
    "PrivateDnsName": "datasync.us-west-1.amazonaws.com",
    "PrivateDnsNames": [
      {
        "PrivateDnsName": "datasync.us-west-1.amazonaws.com"
      }
    ],
    "VpcEndpointPolicySupported": false,
    "AcceptanceRequired": false,
    "ManagesVpcEndpoints": false,
    "Tags": [],
    "PrivateDnsNameVerificationState": "verified"
  },
  {
    "ServiceName": "com.amazonaws.us-west-1.dms",
    "ServiceId": "vpce-svc-0ad2688a5ebefc9ce",
    "ServiceType": [
      {
        "ServiceType": "Interface"
      }
    ],
    "AvailabilityZones": [
      "us-west-1b",
      "us-west-1c"
    ],
    "Owner": "amazon",
    "BaseEndpointDnsNames": [
      "dms.us-west-1.vpce.amazonaws.com"
    ],
    "PrivateDnsName": "dms.us-west-1.amazonaws.com",
    "PrivateDnsNames": [
      {
        "PrivateDnsName": "dms.us-west-1.amazonaws.com"
      }
    ],
    "VpcEndpointPolicySupported": true,
    "AcceptanceRequired": false,
    "ManagesVpcEndpoints": false,
    "Tags": [],
    "PrivateDnsNameVerificationState": "verified"
  },
  {
    "ServiceName": "com.amazonaws.us-west-1.dms-fips",
    "ServiceId": "vpce-svc-0f4ea7bb5bc6f1520",
    "ServiceType": [
      {
        "ServiceType": "Interface"
      }
    ],
    "AvailabilityZones": [
      "us-west-1b",
      "us-west-1c"
    ],
    "Owner": "amazon",
    "BaseEndpointDnsNames": [
      "dms-fips.us-west-1.vpce.amazonaws.com"
    ],
    "PrivateDnsName": "dms-fips.us-west-1.amazonaws.com",
    "PrivateDnsNames": [
      {
        "PrivateDnsName": "dms-fips.us-west-1.amazonaws.com"
      }
    ],
    "VpcEndpointPolicySupported": true,
    "AcceptanceRequired": false,
    "ManagesVpcEndpoints": false,
    "Tags": [],
    "PrivateDnsNameVerificationState": "verified"
  },
  {
    "ServiceName": "com.amazonaws.us-west-1.ebs",
    "ServiceId": "vpce-svc-05bd7fb4b132e9678",
    "ServiceType": [
      {
        "ServiceType": "Interface"
      }
    ],
    "AvailabilityZones": [
      "us-west-1b",
      "us-west-1c"
    ],
    "Owner": "amazon",
    "BaseEndpointDnsNames": [
      "ebs.us-west-1.vpce.amazonaws.com"
    ],
    "PrivateDnsName": "ebs.us-west-1.amazonaws.com",
    "PrivateDnsNames": [
      {
        "PrivateDnsName": "ebs.us-west-1.amazonaws.com"
      }
    ],
    "VpcEndpointPolicySupported": false,
    "AcceptanceRequired": false,
    "ManagesVpcEndpoints": false,
    "Tags": [],
    "PrivateDnsNameVerificationState": "verified"
  },
  {
    "ServiceName": "com.amazonaws.us-west-1.ec2",
    "ServiceId": "vpce-svc-0ee6723c76642b3d8",
    "ServiceType": [
      {
        "ServiceType": "Interface"
      }
    ],
    "AvailabilityZones": [
      "us-west-1b",
      "us-west-1c"
    ],
    "Owner": "amazon",
    "BaseEndpointDnsNames": [
      "ec2.us-west-1.vpce.amazonaws.com"
    ],
    "PrivateDnsName": "ec2.us-west-1.amazonaws.com",
    "PrivateDnsNames": [
      {
        "PrivateDnsName": "ec2.us-west-1.amazonaws.com"
      }
    ],
    "VpcEndpointPolicySupported": true,
    "AcceptanceRequired": false,
    "ManagesVpcEndpoints": false,
    "Tags": [],
    "PrivateDnsNameVerificationState": "verified"
  },
  {
    "ServiceName": "com.amazonaws.us-west-1.ec2messages",
    "ServiceId": "vpce-svc-0f70e5d200f09304f",
    "ServiceType": [
      {
        "ServiceType": "Interface"
      }
    ],
    "AvailabilityZones": [
      "us-west-1b",
      "us-west-1c"
    ],
    "Owner": "amazon",
    "BaseEndpointDnsNames": [
      "ec2messages.us-west-1.vpce.amazonaws.com"
    ],
    "PrivateDnsName": "ec2messages.us-west-1.amazonaws.com",
    "PrivateDnsNames": [
      {
        "PrivateDnsName": "ec2messages.us-west-1.amazonaws.com"
      }
    ],
    "VpcEndpointPolicySupported": true,
    "AcceptanceRequired": false,
    "ManagesVpcEndpoints": false,
    "Tags": [],
    "PrivateDnsNameVerificationState": "verified"
  },
  {
    "ServiceName": "com.amazonaws.us-west-1.ecr.api",
    "ServiceId": "vpce-svc-0ddb62c82e8120625",
    "ServiceType": [
      {
        "ServiceType": "Interface"
      }
    ],
    "AvailabilityZones": [
      "us-west-1b",
      "us-west-1c"
    ],
    "Owner": "amazon",
    "BaseEndpointDnsNames": [
      "api.ecr.us-west-1.vpce.amazonaws.com"
    ],
    "PrivateDnsName": "api.ecr.us-west-1.amazonaws.com",
    "PrivateDnsNames": [
      {
        "PrivateDnsName": "api.ecr.us-west-1.amazonaws.com"
      }
    ],
    "VpcEndpointPolicySupported": true,
    "AcceptanceRequired": false,
    "ManagesVpcEndpoints": false,
    "Tags": [],
    "PrivateDnsNameVerificationState": "verified"
  },
  {
    "ServiceName": "com.amazonaws.us-west-1.ecr.dkr",
    "ServiceId": "vpce-svc-0073d0f811c1d9d32",
    "ServiceType": [
      {
        "ServiceType": "Interface"
      }
    ],
    "AvailabilityZones": [
      "us-west-1b",
      "us-west-1c"
    ],
    "Owner": "amazon",
    "BaseEndpointDnsNames": [
      "dkr.ecr.us-west-1.vpce.amazonaws.com"
    ],
    "PrivateDnsName": "*.dkr.ecr.us-west-1.amazonaws.com",
    "PrivateDnsNames": [
      {
        "PrivateDnsName": "*.dkr.ecr.us-west-1.amazonaws.com"
      }
    ],
    "VpcEndpointPolicySupported": true,
    "AcceptanceRequired": false,
    "ManagesVpcEndpoints": false,
    "Tags": [],
    "PrivateDnsNameVerificationState": "verified"
  },
  {
    "ServiceName": "com.amazonaws.us-west-1.ecs",
    "ServiceId": "vpce-svc-07cc8354b63547229",
    "ServiceType": [
      {
        "ServiceType": "Interface"
      }
    ],
    "AvailabilityZones": [
      "us-west-1b",
      "us-west-1c"
    ],
    "Owner": "amazon",
    "BaseEndpointDnsNames": [
      "ecs.us-west-1.vpce.amazonaws.com"
    ],
    "PrivateDnsName": "ecs.us-west-1.amazonaws.com",
    "PrivateDnsNames": [
      {
        "PrivateDnsName": "ecs.us-west-1.amazonaws.com"
      }
    ],
    "VpcEndpointPolicySupported": true,
    "AcceptanceRequired": false,
    "ManagesVpcEndpoints": false,
    "Tags": [],
    "PrivateDnsNameVerificationState": "verified"
  },
  {
    "ServiceName": "com.amazonaws.us-west-1.ecs-agent",
    "ServiceId": "vpce-svc-0fdb3c1332b2422b6",
    "ServiceType": [
      {
        "ServiceType": "Interface"
      }
    ],
    "AvailabilityZones": [
      "us-west-1b",
      "us-west-1c"
    ],
    "Owner": "amazon",
    "BaseEndpointDnsNames": [
      "ecs-a.us-west-1.vpce.amazonaws.com"
    ],
    "PrivateDnsName": "ecs-a.us-west-1.amazonaws.com",
    "PrivateDnsNames": [
      {
        "PrivateDnsName": "ecs-a.us-west-1.amazonaws.com"
      }
    ],
    "VpcEndpointPolicySupported": true,
    "AcceptanceRequired": false,
    "ManagesVpcEndpoints": false,
    "Tags": [],
    "PrivateDnsNameVerificationState": "verified"
  },
  {
    "ServiceName": "com.amazonaws.us-west-1.ecs-telemetry",
    "ServiceId": "vpce-svc-0ac4bf17e5d58e316",
    "ServiceType": [
      {
        "ServiceType": "Interface"
      }
    ],
    "AvailabilityZones": [
      "us-west-1b",
      "us-west-1c"
    ],
    "Owner": "amazon",
    "BaseEndpointDnsNames": [
      "ecs-t.us-west-1.vpce.amazonaws.com"
    ],
    "PrivateDnsName": "ecs-t.us-west-1.amazonaws.com",
    "PrivateDnsNames": [
      {
        "PrivateDnsName": "ecs-t.us-west-1.amazonaws.com"
      }
    ],
    "VpcEndpointPolicySupported": true,
    "AcceptanceRequired": false,
    "ManagesVpcEndpoints": false,
    "Tags": [],
    "PrivateDnsNameVerificationState": "verified"
  },
  {
    "ServiceName": "com.amazonaws.us-west-1.elasticache",
    "ServiceId": "vpce-svc-0d5afe9a14c23f063",
    "ServiceType": [
      {
        "ServiceType": "Interface"
      }
    ],
    "AvailabilityZones": [
      "us-west-1b",
      "us-west-1c"
    ],
    "Owner": "amazon",
    "BaseEndpointDnsNames": [
      "elasticache.us-west-1.vpce.amazonaws.com"
    ],
    "PrivateDnsName": "elasticache.us-west-1.amazonaws.com",
    "PrivateDnsNames": [
      {
        "PrivateDnsName": "elasticache.us-west-1.amazonaws.com"
      }
    ],
    "VpcEndpointPolicySupported": true,
    "AcceptanceRequired": false,
    "ManagesVpcEndpoints": false,
    "Tags": [],
    "PrivateDnsNameVerificationState": "verified"
  },
  {
    "ServiceName": "com.amazonaws.us-west-1.elasticache-fips",
    "ServiceId": "vpce-svc-0db797b55437eae74",
    "ServiceType": [
      {
        "ServiceType": "Interface"
      }
    ],
    "AvailabilityZones": [
      "us-west-1b",
      "us-west-1c"
    ],
    "Owner": "amazon",
    "BaseEndpointDnsNames": [
      "elasticache-fips.us-west-1.vpce.amazonaws.com"
    ],
    "PrivateDnsName": "elasticache-fips.us-west-1.amazonaws.com",
    "PrivateDnsNames": [
      {
        "PrivateDnsName": "elasticache-fips.us-west-1.amazonaws.com"
      }
    ],
    "VpcEndpointPolicySupported": true,
    "AcceptanceRequired": false,
    "ManagesVpcEndpoints": false,
    "Tags": [],
    "PrivateDnsNameVerificationState": "verified"
  },
  {
    "ServiceName": "com.amazonaws.us-west-1.elasticbeanstalk",
    "ServiceId": "vpce-svc-0f36c735c0c8b7954",
    "ServiceType": [
      {
        "ServiceType": "Interface"
      }
    ],
    "AvailabilityZones": [
      "us-west-1b",
      "us-west-1c"
    ],
    "Owner": "amazon",
    "BaseEndpointDnsNames": [
      "elasticbeanstalk.us-west-1.vpce.amazonaws.com"
    ],
    "PrivateDnsName": "elasticbeanstalk.us-west-1.amazonaws.com",
    "PrivateDnsNames": [
      {
        "PrivateDnsName": "elasticbeanstalk.us-west-1.amazonaws.com"
      }
    ],
    "VpcEndpointPolicySupported": true,
    "AcceptanceRequired": false,
    "ManagesVpcEndpoints": false,
    "Tags": [],
    "PrivateDnsNameVerificationState": "verified"
  },
  {
    "ServiceName": "com.amazonaws.us-west-1.elasticbeanstalk-health",
    "ServiceId": "vpce-svc-0aa57fb4109019c2a",
    "ServiceType": [
      {
        "ServiceType": "Interface"
      }
    ],
    "AvailabilityZones": [
      "us-west-1b",
      "us-west-1c"
    ],
    "Owner": "amazon",
    "BaseEndpointDnsNames": [
      "elasticbeanstalk-health.us-west-1.vpce.amazonaws.com"
    ],
    "PrivateDnsName": "elasticbeanstalk-health.us-west-1.amazonaws.com",
    "PrivateDnsNames": [
      {
        "PrivateDnsName": "elasticbeanstalk-health.us-west-1.amazonaws.com"
      }
    ],
    "VpcEndpointPolicySupported": true,
    "AcceptanceRequired": false,
    "ManagesVpcEndpoints": false,
    "Tags": [],
    "PrivateDnsNameVerificationState": "verified"
  },
  {
    "ServiceName": "com.amazonaws.us-west-1.elasticfilesystem",
    "ServiceId": "vpce-svc-0cd307e973ed05bee",
    "ServiceType": [
      {
        "ServiceType": "Interface"
      }
    ],
    "AvailabilityZones": [
      "us-west-1b",
      "us-west-1c"
    ],
    "Owner": "amazon",
    "BaseEndpointDnsNames": [
      "elasticfilesystem.us-west-1.vpce.amazonaws.com"
    ],
    "PrivateDnsName": "elasticfilesystem.us-west-1.amazonaws.com",
    "PrivateDnsNames": [
      {
        "PrivateDnsName": "elasticfilesystem.us-west-1.amazonaws.com"
      }
    ],
    "VpcEndpointPolicySupported": true,
    "AcceptanceRequired": false,
    "ManagesVpcEndpoints": false,
    "Tags": [],
    "PrivateDnsNameVerificationState": "verified"
  },
  {
    "ServiceName": "com.amazonaws.us-west-1.elasticfilesystem-fips",
    "ServiceId": "vpce-svc-0949d9d91e810d6fd",
    "ServiceType": [
      {
        "ServiceType": "Interface"
      }
    ],
    "AvailabilityZones": [
      "us-west-1b",
      "us-west-1c"
    ],
    "Owner": "amazon",
    "BaseEndpointDnsNames": [
      "elasticfilesystem-fips.us-west-1.vpce.amazonaws.com"
    ],
    "PrivateDnsName": "elasticfilesystem-fips.us-west-1.amazonaws.com",
    "PrivateDnsNames": [
      {
        "PrivateDnsName": "elasticfilesystem-fips.us-west-1.amazonaws.com"
      }
    ],
    "VpcEndpointPolicySupported": true,
    "AcceptanceRequired": false,
    "ManagesVpcEndpoints": false,
    "Tags": [],
    "PrivateDnsNameVerificationState": "verified"
  },
  {
    "ServiceName": "com.amazonaws.us-west-1.elasticloadbalancing",
    "ServiceId": "vpce-svc-0a20dd59ee1598b01",
    "ServiceType": [
      {
        "ServiceType": "Interface"
      }
    ],
    "AvailabilityZones": [
      "us-west-1b",
      "us-west-1c"
    ],
    "Owner": "amazon",
    "BaseEndpointDnsNames": [
      "elasticloadbalancing.us-west-1.vpce.amazonaws.com"
    ],
    "PrivateDnsName": "elasticloadbalancing.us-west-1.amazonaws.com",
    "PrivateDnsNames": [
      {
        "PrivateDnsName": "elasticloadbalancing.us-west-1.amazonaws.com"
      }
    ],
    "VpcEndpointPolicySupported": true,
    "AcceptanceRequired": false,
    "ManagesVpcEndpoints": false,
    "Tags": [],
    "PrivateDnsNameVerificationState": "verified"
  },
  {
    "ServiceName": "com.amazonaws.us-west-1.elasticmapreduce",
    "ServiceId": "vpce-svc-0c4f61417a9b6a0ed",
    "ServiceType": [
      {
        "ServiceType": "Interface"
      }
    ],
    "AvailabilityZones": [
      "us-west-1b",
      "us-west-1c"
    ],
    "Owner": "amazon",
    "BaseEndpointDnsNames": [
      "elasticmapreduce.us-west-1.vpce.amazonaws.com"
    ],
    "PrivateDnsName": "elasticmapreduce.us-west-1.amazonaws.com",
    "PrivateDnsNames": [
      {
        "PrivateDnsName": "elasticmapreduce.us-west-1.amazonaws.com"
      }
    ],
    "VpcEndpointPolicySupported": true,
    "AcceptanceRequired": false,
    "ManagesVpcEndpoints": false,
    "Tags": [],
    "PrivateDnsNameVerificationState": "verified"
  },
  {
    "ServiceName": "com.amazonaws.us-west-1.email-smtp",
    "ServiceId": "vpce-svc-09db11a6b95ce2b0d",
    "ServiceType": [
      {
        "ServiceType": "Interface"
      }
    ],
    "AvailabilityZones": [
      "us-west-1b",
      "us-west-1c"
    ],
    "Owner": "amazon",
    "BaseEndpointDnsNames": [
      "email-smtp.us-west-1.vpce.amazonaws.com"
    ],
    "PrivateDnsName": "email-smtp.us-west-1.amazonaws.com",
    "PrivateDnsNames": [
      {
        "PrivateDnsName": "email-smtp.us-west-1.amazonaws.com"
      }
    ],
    "VpcEndpointPolicySupported": false,
    "AcceptanceRequired": false,
    "ManagesVpcEndpoints": false,
    "Tags": [],
    "PrivateDnsNameVerificationState": "verified"
  },
  {
    "ServiceName": "com.amazonaws.us-west-1.emr-containers",
    "ServiceId": "vpce-svc-0d97c3f240d6e8814",
    "ServiceType": [
      {
        "ServiceType": "Interface"
      }
    ],
    "AvailabilityZones": [
      "us-west-1b",
      "us-west-1c"
    ],
    "Owner": "amazon",
    "BaseEndpointDnsNames": [
      "emr-containers.us-west-1.vpce.amazonaws.com"
    ],
    "PrivateDnsName": "emr-containers.us-west-1.amazonaws.com",
    "PrivateDnsNames": [
      {
        "PrivateDnsName": "emr-containers.us-west-1.amazonaws.com"
      }
    ],
    "VpcEndpointPolicySupported": true,
    "AcceptanceRequired": false,
    "ManagesVpcEndpoints": false,
    "Tags": [],
    "PrivateDnsNameVerificationState": "verified"
  },
  {
    "ServiceName": "com.amazonaws.us-west-1.events",
    "ServiceId": "vpce-svc-0da07138b3eb1973a",
    "ServiceType": [
      {
        "ServiceType": "Interface"
      }
    ],
    "AvailabilityZones": [
      "us-west-1b",
      "us-west-1c"
    ],
    "Owner": "amazon",
    "BaseEndpointDnsNames": [
      "events.us-west-1.vpce.amazonaws.com"
    ],
    "PrivateDnsName": "events.us-west-1.amazonaws.com",
    "PrivateDnsNames": [
      {
        "PrivateDnsName": "events.us-west-1.amazonaws.com"
      }
    ],
    "VpcEndpointPolicySupported": true,
    "AcceptanceRequired": false,
    "ManagesVpcEndpoints": false,
    "Tags": [],
    "PrivateDnsNameVerificationState": "verified"
  },
  {
    "ServiceName": "com.amazonaws.us-west-1.execute-api",
    "ServiceId": "vpce-svc-0b6518e1c13142d19",
    "ServiceType": [
      {
        "ServiceType": "Interface"
      }
    ],
    "AvailabilityZones": [
      "us-west-1b",
      "us-west-1c"
    ],
    "Owner": "amazon",
    "BaseEndpointDnsNames": [
      "execute-api.us-west-1.vpce.amazonaws.com"
    ],
    "PrivateDnsName": "*.execute-api.us-west-1.amazonaws.com",
    "PrivateDnsNames": [
      {
        "PrivateDnsName": "*.execute-api.us-west-1.amazonaws.com"
      }
    ],
    "VpcEndpointPolicySupported": true,
    "AcceptanceRequired": false,
    "ManagesVpcEndpoints": false,
    "Tags": [],
    "PrivateDnsNameVerificationState": "verified"
  },
  {
    "ServiceName": "com.amazonaws.us-west-1.fis",
    "ServiceId": "vpce-svc-0d54258a0c423c478",
    "ServiceType": [
      {
        "ServiceType": "Interface"
      }
    ],
    "AvailabilityZones": [
      "us-west-1b",
      "us-west-1c"
    ],
    "Owner": "amazon",
    "BaseEndpointDnsNames": [
      "fis.us-west-1.vpce.amazonaws.com"
    ],
    "PrivateDnsName": "fis.us-west-1.amazonaws.com",
    "PrivateDnsNames": [
      {
        "PrivateDnsName": "fis.us-west-1.amazonaws.com"
      }
    ],
    "VpcEndpointPolicySupported": true,
    "AcceptanceRequired": false,
    "ManagesVpcEndpoints": false,
    "Tags": [],
    "PrivateDnsNameVerificationState": "verified"
  },
  {
    "ServiceName": "com.amazonaws.us-west-1.fsx",
    "ServiceId": "vpce-svc-071645ec3dfa6f8cb",
    "ServiceType": [
      {
        "ServiceType": "Interface"
      }
    ],
    "AvailabilityZones": [
      "us-west-1b",
      "us-west-1c"
    ],
    "Owner": "amazon",
    "BaseEndpointDnsNames": [
      "fsx.us-west-1.vpce.amazonaws.com"
    ],
    "PrivateDnsName": "fsx.us-west-1.amazonaws.com",
    "PrivateDnsNames": [
      {
        "PrivateDnsName": "fsx.us-west-1.amazonaws.com"
      }
    ],
    "VpcEndpointPolicySupported": true,
    "AcceptanceRequired": false,
    "ManagesVpcEndpoints": false,
    "Tags": [],
    "PrivateDnsNameVerificationState": "verified"
  },
  {
    "ServiceName": "com.amazonaws.us-west-1.fsx-fips",
    "ServiceId": "vpce-svc-0101014ccf6e18813",
    "ServiceType": [
      {
        "ServiceType": "Interface"
      }
    ],
    "AvailabilityZones": [
      "us-west-1b",
      "us-west-1c"
    ],
    "Owner": "amazon",
    "BaseEndpointDnsNames": [
      "fsx-fips.us-west-1.vpce.amazonaws.com"
    ],
    "PrivateDnsName": "fsx-fips.us-west-1.amazonaws.com",
    "PrivateDnsNames": [
      {
        "PrivateDnsName": "fsx-fips.us-west-1.amazonaws.com"
      }
    ],
    "VpcEndpointPolicySupported": true,
    "AcceptanceRequired": false,
    "ManagesVpcEndpoints": false,
    "Tags": [],
    "PrivateDnsNameVerificationState": "verified"
  },
  {
    "ServiceName": "com.amazonaws.us-west-1.git-codecommit",
    "ServiceId": "vpce-svc-05b03c911d2e3e55b",
    "ServiceType": [
      {
        "ServiceType": "Interface"
      }
    ],
    "AvailabilityZones": [
      "us-west-1b",
      "us-west-1c"
    ],
    "Owner": "amazon",
    "BaseEndpointDnsNames": [
      "git-codecommit.us-west-1.vpce.amazonaws.com"
    ],
    "PrivateDnsName": "git-codecommit.us-west-1.amazonaws.com",
    "PrivateDnsNames": [
      {
        "PrivateDnsName": "git-codecommit.us-west-1.amazonaws.com"
      }
    ],
    "VpcEndpointPolicySupported": true,
    "AcceptanceRequired": false,
    "ManagesVpcEndpoints": false,
    "Tags": [],
    "PrivateDnsNameVerificationState": "verified"
  },
  {
    "ServiceName": "com.amazonaws.us-west-1.git-codecommit-fips",
    "ServiceId": "vpce-svc-0fb07476dd44d4e97",
    "ServiceType": [
      {
        "ServiceType": "Interface"
      }
    ],
    "AvailabilityZones": [
      "us-west-1b",
      "us-west-1c"
    ],
    "Owner": "amazon",
    "BaseEndpointDnsNames": [
      "git-codecommit-fips.us-west-1.vpce.amazonaws.com"
    ],
    "PrivateDnsName": "git-codecommit-fips.us-west-1.amazonaws.com",
    "PrivateDnsNames": [
      {
        "PrivateDnsName": "git-codecommit-fips.us-west-1.amazonaws.com"
      }
    ],
    "VpcEndpointPolicySupported": true,
    "AcceptanceRequired": false,
    "ManagesVpcEndpoints": false,
    "Tags": [],
    "PrivateDnsNameVerificationState": "verified"
  },
  {
    "ServiceName": "com.amazonaws.us-west-1.glue",
    "ServiceId": "vpce-svc-00864b987ed32574e",
    "ServiceType": [
      {
        "ServiceType": "Interface"
      }
    ],
    "AvailabilityZones": [
      "us-west-1b",
      "us-west-1c"
    ],
    "Owner": "amazon",
    "BaseEndpointDnsNames": [
      "glue.us-west-1.vpce.amazonaws.com"
    ],
    "PrivateDnsName": "glue.us-west-1.amazonaws.com",
    "PrivateDnsNames": [
      {
        "PrivateDnsName": "glue.us-west-1.amazonaws.com"
      }
    ],
    "VpcEndpointPolicySupported": true,
    "AcceptanceRequired": false,
    "ManagesVpcEndpoints": false,
    "Tags": [],
    "PrivateDnsNameVerificationState": "verified"
  },
  {
    "ServiceName": "com.amazonaws.us-west-1.imagebuilder",
    "ServiceId": "vpce-svc-055b1fedd5eb577b9",
    "ServiceType": [
      {
        "ServiceType": "Interface"
      }
    ],
    "AvailabilityZones": [
      "us-west-1b",
      "us-west-1c"
    ],
    "Owner": "amazon",
    "BaseEndpointDnsNames": [
      "imagebuilder.us-west-1.vpce.amazonaws.com"
    ],
    "PrivateDnsName": "imagebuilder.us-west-1.amazonaws.com",
    "PrivateDnsNames": [
      {
        "PrivateDnsName": "imagebuilder.us-west-1.amazonaws.com"
      }
    ],
    "VpcEndpointPolicySupported": true,
    "AcceptanceRequired": false,
    "ManagesVpcEndpoints": false,
    "Tags": [],
    "PrivateDnsNameVerificationState": "verified"
  },
  {
    "ServiceName": "com.amazonaws.us-west-1.inspector2",
    "ServiceId": "vpce-svc-04a2fb33b59f5366e",
    "ServiceType": [
      {
        "ServiceType": "Interface"
      }
    ],
    "AvailabilityZones": [
      "us-west-1b",
      "us-west-1c"
    ],
    "Owner": "amazon",
    "BaseEndpointDnsNames": [
      "inspector2.us-west-1.vpce.amazonaws.com"
    ],
    "PrivateDnsName": "inspector2.us-west-1.amazonaws.com",
    "PrivateDnsNames": [
      {
        "PrivateDnsName": "inspector2.us-west-1.amazonaws.com"
      }
    ],
    "VpcEndpointPolicySupported": true,
    "AcceptanceRequired": false,
    "ManagesVpcEndpoints": false,
    "Tags": [],
    "PrivateDnsNameVerificationState": "verified"
  },
  {
    "ServiceName": "com.amazonaws.us-west-1.iot.data",
    "ServiceId": "vpce-svc-0643878dd9853dea3",
    "ServiceType": [
      {
        "ServiceType": "Interface"
      }
    ],
    "AvailabilityZones": [
      "us-west-1b",
      "us-west-1c"
    ],
    "Owner": "amazon",
    "BaseEndpointDnsNames": [
      "data.iot.us-west-1.vpce.amazonaws.com"
    ],
    "VpcEndpointPolicySupported": false,
    "AcceptanceRequired": false,
    "ManagesVpcEndpoints": false,
    "Tags": []
  },
  {
    "ServiceName": "com.amazonaws.us-west-1.kinesis-firehose",
    "ServiceId": "vpce-svc-07b197d36d2f78c3e",
    "ServiceType": [
      {
        "ServiceType": "Interface"
      }
    ],
    "AvailabilityZones": [
      "us-west-1b",
      "us-west-1c"
    ],
    "Owner": "amazon",
    "BaseEndpointDnsNames": [
      "firehose.us-west-1.vpce.amazonaws.com"
    ],
    "PrivateDnsName": "firehose.us-west-1.amazonaws.com",
    "PrivateDnsNames": [
      {
        "PrivateDnsName": "firehose.us-west-1.amazonaws.com"
      }
    ],
    "VpcEndpointPolicySupported": true,
    "AcceptanceRequired": false,
    "ManagesVpcEndpoints": false,
    "Tags": [],
    "PrivateDnsNameVerificationState": "verified"
  },
  {
    "ServiceName": "com.amazonaws.us-west-1.kinesis-streams",
    "ServiceId": "vpce-svc-07d7a78ee6705591c",
    "ServiceType": [
      {
        "ServiceType": "Interface"
      }
    ],
    "AvailabilityZones": [
      "us-west-1b",
      "us-west-1c"
    ],
    "Owner": "amazon",
    "BaseEndpointDnsNames": [
      "kinesis.us-west-1.vpce.amazonaws.com"
    ],
    "PrivateDnsName": "kinesis.us-west-1.amazonaws.com",
    "PrivateDnsNames": [
      {
        "PrivateDnsName": "kinesis.us-west-1.amazonaws.com"
      }
    ],
    "VpcEndpointPolicySupported": true,
    "AcceptanceRequired": false,
    "ManagesVpcEndpoints": false,
    "Tags": [],
    "PrivateDnsNameVerificationState": "verified"
  },
  {
    "ServiceName": "com.amazonaws.us-west-1.kms",
    "ServiceId": "vpce-svc-0053a82fa088f7d39",
    "ServiceType": [
      {
        "ServiceType": "Interface"
      }
    ],
    "AvailabilityZones": [
      "us-west-1b",
      "us-west-1c"
    ],
    "Owner": "amazon",
    "BaseEndpointDnsNames": [
      "kms.us-west-1.vpce.amazonaws.com"
    ],
    "PrivateDnsName": "kms.us-west-1.amazonaws.com",
    "PrivateDnsNames": [
      {
        "PrivateDnsName": "kms.us-west-1.amazonaws.com"
      }
    ],
    "VpcEndpointPolicySupported": true,
    "AcceptanceRequired": false,
    "ManagesVpcEndpoints": false,
    "Tags": [],
    "PrivateDnsNameVerificationState": "verified"
  },
  {
    "ServiceName": "com.amazonaws.us-west-1.lakeformation",
    "ServiceId": "vpce-svc-0d3a12854233fea77",
    "ServiceType": [
      {
        "ServiceType": "Interface"
      }
    ],
    "AvailabilityZones": [
      "us-west-1b",
      "us-west-1c"
    ],
    "Owner": "amazon",
    "BaseEndpointDnsNames": [
      "lakeformation.us-west-1.vpce.amazonaws.com"
    ],
    "PrivateDnsName": "lakeformation.us-west-1.amazonaws.com",
    "PrivateDnsNames": [
      {
        "PrivateDnsName": "lakeformation.us-west-1.amazonaws.com"
      }
    ],
    "VpcEndpointPolicySupported": true,
    "AcceptanceRequired": false,
    "ManagesVpcEndpoints": false,
    "Tags": [],
    "PrivateDnsNameVerificationState": "verified"
  },
  {
    "ServiceName": "com.amazonaws.us-west-1.lambda",
    "ServiceId": "vpce-svc-0881849868a9ef4a8",
    "ServiceType": [
      {
        "ServiceType": "Interface"
      }
    ],
    "AvailabilityZones": [
      "us-west-1b",
      "us-west-1c"
    ],
    "Owner": "amazon",
    "BaseEndpointDnsNames": [
      "lambda.us-west-1.vpce.amazonaws.com"
    ],
    "PrivateDnsName": "lambda.us-west-1.amazonaws.com",
    "PrivateDnsNames": [
      {
        "PrivateDnsName": "lambda.us-west-1.amazonaws.com"
      },
      {
        "PrivateDnsName": "lambda.us-west-1.api.aws"
      }
    ],
    "VpcEndpointPolicySupported": true,
    "AcceptanceRequired": false,
    "ManagesVpcEndpoints": false,
    "Tags": [],
    "PrivateDnsNameVerificationState": "verified"
  },
  {
    "ServiceName": "com.amazonaws.us-west-1.license-manager",
    "ServiceId": "vpce-svc-0bb4c14e25377a6a1",
    "ServiceType": [
      {
        "ServiceType": "Interface"
      }
    ],
    "AvailabilityZones": [
      "us-west-1b",
      "us-west-1c"
    ],
    "Owner": "amazon",
    "BaseEndpointDnsNames": [
      "license-manager.us-west-1.vpce.amazonaws.com"
    ],
    "PrivateDnsName": "license-manager.us-west-1.amazonaws.com",
    "PrivateDnsNames": [
      {
        "PrivateDnsName": "license-manager.us-west-1.amazonaws.com"
      }
    ],
    "VpcEndpointPolicySupported": true,
    "AcceptanceRequired": false,
    "ManagesVpcEndpoints": false,
    "Tags": [],
    "PrivateDnsNameVerificationState": "verified"
  },
  {
    "ServiceName": "com.amazonaws.us-west-1.license-manager-fips",
    "ServiceId": "vpce-svc-014cb7ce349ab85a5",
    "ServiceType": [
      {
        "ServiceType": "Interface"
      }
    ],
    "AvailabilityZones": [
      "us-west-1b",
      "us-west-1c"
    ],
    "Owner": "amazon",
    "BaseEndpointDnsNames": [
      "license-manager-fips.us-west-1.vpce.amazonaws.com"
    ],
    "PrivateDnsName": "license-manager-fips.us-west-1.amazonaws.com",
    "PrivateDnsNames": [
      {
        "PrivateDnsName": "license-manager-fips.us-west-1.amazonaws.com"
      }
    ],
    "VpcEndpointPolicySupported": true,
    "AcceptanceRequired": false,
    "ManagesVpcEndpoints": false,
    "Tags": [],
    "PrivateDnsNameVerificationState": "verified"
  },
  {
    "ServiceName": "com.amazonaws.us-west-1.logs",
    "ServiceId": "vpce-svc-092d8f9e8c5aa7466",
    "ServiceType": [
      {
        "ServiceType": "Interface"
      }
    ],
    "AvailabilityZones": [
      "us-west-1b",
      "us-west-1c"
    ],
    "Owner": "amazon",
    "BaseEndpointDnsNames": [
      "logs.us-west-1.vpce.amazonaws.com"
    ],
    "PrivateDnsName": "logs.us-west-1.amazonaws.com",
    "PrivateDnsNames": [
      {
        "PrivateDnsName": "logs.us-west-1.amazonaws.com"
      }
    ],
    "VpcEndpointPolicySupported": true,
    "AcceptanceRequired": false,
    "ManagesVpcEndpoints": false,
    "Tags": [],
    "PrivateDnsNameVerificationState": "verified"
  },
  {
    "ServiceName": "com.amazonaws.us-west-1.macie2",
    "ServiceId": "vpce-svc-0e1b38bb042e85380",
    "ServiceType": [
      {
        "ServiceType": "Interface"
      }
    ],
    "AvailabilityZones": [
      "us-west-1b",
      "us-west-1c"
    ],
    "Owner": "amazon",
    "BaseEndpointDnsNames": [
      "macie2.us-west-1.vpce.amazonaws.com"
    ],
    "PrivateDnsName": "macie2.us-west-1.amazonaws.com",
    "PrivateDnsNames": [
      {
        "PrivateDnsName": "macie2.us-west-1.amazonaws.com"
      }
    ],
    "VpcEndpointPolicySupported": false,
    "AcceptanceRequired": false,
    "ManagesVpcEndpoints": false,
    "Tags": [],
    "PrivateDnsNameVerificationState": "verified"
  },
  {
    "ServiceName": "com.amazonaws.us-west-1.mediaconnect",
    "ServiceId": "vpce-svc-0c1d54bf1d2c7762a",
    "ServiceType": [
      {
        "ServiceType": "Interface"
      }
    ],
    "AvailabilityZones": [
      "us-west-1b"
    ],
    "Owner": "amazon",
    "BaseEndpointDnsNames": [
      "mediaconnect.us-west-1.vpce.amazonaws.com"
    ],
    "PrivateDnsName": "mediaconnect.us-west-1.amazonaws.com",
    "PrivateDnsNames": [
      {
        "PrivateDnsName": "mediaconnect.us-west-1.amazonaws.com"
      }
    ],
    "VpcEndpointPolicySupported": true,
    "AcceptanceRequired": false,
    "ManagesVpcEndpoints": false,
    "Tags": [],
    "PrivateDnsNameVerificationState": "verified"
  },
  {
    "ServiceName": "com.amazonaws.us-west-1.memory-db",
    "ServiceId": "vpce-svc-009a40ba8e19b6e89",
    "ServiceType": [
      {
        "ServiceType": "Interface"
      }
    ],
    "AvailabilityZones": [
      "us-west-1b",
      "us-west-1c"
    ],
    "Owner": "amazon",
    "BaseEndpointDnsNames": [
      "memory-db.us-west-1.vpce.amazonaws.com"
    ],
    "PrivateDnsName": "memory-db.us-west-1.amazonaws.com",
    "PrivateDnsNames": [
      {
        "PrivateDnsName": "memory-db.us-west-1.amazonaws.com"
      }
    ],
    "VpcEndpointPolicySupported": true,
    "AcceptanceRequired": false,
    "ManagesVpcEndpoints": false,
    "Tags": [],
    "PrivateDnsNameVerificationState": "verified"
  },
  {
    "ServiceName": "com.amazonaws.us-west-1.memorydb-fips",
    "ServiceId": "vpce-svc-07b25cf223dba3350",
    "ServiceType": [
      {
        "ServiceType": "Interface"
      }
    ],
    "AvailabilityZones": [
      "us-west-1b",
      "us-west-1c"
    ],
    "Owner": "amazon",
    "BaseEndpointDnsNames": [
      "memorydb-fips.us-west-1.vpce.amazonaws.com"
    ],
    "PrivateDnsName": "memorydb-fips.us-west-1.amazonaws.com",
    "PrivateDnsNames": [
      {
        "PrivateDnsName": "memorydb-fips.us-west-1.amazonaws.com"
      }
    ],
    "VpcEndpointPolicySupported": true,
    "AcceptanceRequired": false,
    "ManagesVpcEndpoints": false,
    "Tags": [],
    "PrivateDnsNameVerificationState": "verified"
  },
  {
    "ServiceName": "com.amazonaws.us-west-1.mgn",
    "ServiceId": "vpce-svc-03c04295d603d5b0c",
    "ServiceType": [
      {
        "ServiceType": "Interface"
      }
    ],
    "AvailabilityZones": [
      "us-west-1b",
      "us-west-1c"
    ],
    "Owner": "amazon",
    "BaseEndpointDnsNames": [
      "mgn.us-west-1.vpce.amazonaws.com"
    ],
    "PrivateDnsName": "mgn.us-west-1.amazonaws.com",
    "PrivateDnsNames": [
      {
        "PrivateDnsName": "mgn.us-west-1.amazonaws.com"
      }
    ],
    "VpcEndpointPolicySupported": true,
    "AcceptanceRequired": false,
    "ManagesVpcEndpoints": false,
    "Tags": [],
    "PrivateDnsNameVerificationState": "verified"
  },
  {
    "ServiceName": "com.amazonaws.us-west-1.monitoring",
    "ServiceId": "vpce-svc-07fd3eb586d49e319",
    "ServiceType": [
      {
        "ServiceType": "Interface"
      }
    ],
    "AvailabilityZones": [
      "us-west-1b",
      "us-west-1c"
    ],
    "Owner": "amazon",
    "BaseEndpointDnsNames": [
      "monitoring.us-west-1.vpce.amazonaws.com"
    ],
    "PrivateDnsName": "monitoring.us-west-1.amazonaws.com",
    "PrivateDnsNames": [
      {
        "PrivateDnsName": "monitoring.us-west-1.amazonaws.com"
      }
    ],
    "VpcEndpointPolicySupported": true,
    "AcceptanceRequired": false,
    "ManagesVpcEndpoints": false,
    "Tags": [],
    "PrivateDnsNameVerificationState": "verified"
  },
  {
    "ServiceName": "com.amazonaws.us-west-1.rds",
    "ServiceId": "vpce-svc-09b231b4310a518db",
    "ServiceType": [
      {
        "ServiceType": "Interface"
      }
    ],
    "AvailabilityZones": [
      "us-west-1b",
      "us-west-1c"
    ],
    "Owner": "amazon",
    "BaseEndpointDnsNames": [
      "rds.us-west-1.vpce.amazonaws.com"
    ],
    "PrivateDnsName": "rds.us-west-1.amazonaws.com",
    "PrivateDnsNames": [
      {
        "PrivateDnsName": "rds.us-west-1.amazonaws.com"
      },
      {
        "PrivateDnsName": "rds.us-west-1.api.aws"
      }
    ],
    "VpcEndpointPolicySupported": true,
    "AcceptanceRequired": false,
    "ManagesVpcEndpoints": false,
    "Tags": [],
    "PrivateDnsNameVerificationState": "verified"
  },
  {
    "ServiceName": "com.amazonaws.us-west-1.rds-data",
    "ServiceId": "vpce-svc-0affc4232471f381a",
    "ServiceType": [
      {
        "ServiceType": "Interface"
      }
    ],
    "AvailabilityZones": [
      "us-west-1b",
      "us-west-1c"
    ],
    "Owner": "amazon",
    "BaseEndpointDnsNames": [
      "rds-data.us-west-1.vpce.amazonaws.com"
    ],
    "PrivateDnsName": "rds-data.us-west-1.amazonaws.com",
    "PrivateDnsNames": [
      {
        "PrivateDnsName": "rds-data.us-west-1.amazonaws.com"
      }
    ],
    "VpcEndpointPolicySupported": true,
    "AcceptanceRequired": false,
    "ManagesVpcEndpoints": false,
    "Tags": [],
    "PrivateDnsNameVerificationState": "verified"
  },
  {
    "ServiceName": "com.amazonaws.us-west-1.redshift",
    "ServiceId": "vpce-svc-027a0e1eed5c9f20e",
    "ServiceType": [
      {
        "ServiceType": "Interface"
      }
    ],
    "AvailabilityZones": [
      "us-west-1b",
      "us-west-1c"
    ],
    "Owner": "amazon",
    "BaseEndpointDnsNames": [
      "redshift.us-west-1.vpce.amazonaws.com"
    ],
    "PrivateDnsName": "redshift.us-west-1.amazonaws.com",
    "PrivateDnsNames": [
      {
        "PrivateDnsName": "redshift.us-west-1.amazonaws.com"
      }
    ],
    "VpcEndpointPolicySupported": true,
    "AcceptanceRequired": false,
    "ManagesVpcEndpoints": false,
    "Tags": [],
    "PrivateDnsNameVerificationState": "verified"
  },
  {
    "ServiceName": "com.amazonaws.us-west-1.redshift-data",
    "ServiceId": "vpce-svc-0c23b49505a3cca0b",
    "ServiceType": [
      {
        "ServiceType": "Interface"
      }
    ],
    "AvailabilityZones": [
      "us-west-1b",
      "us-west-1c"
    ],
    "Owner": "amazon",
    "BaseEndpointDnsNames": [
      "redshift-data.us-west-1.vpce.amazonaws.com"
    ],
    "PrivateDnsName": "redshift-data.us-west-1.amazonaws.com",
    "PrivateDnsNames": [
      {
        "PrivateDnsName": "redshift-data.us-west-1.amazonaws.com"
      }
    ],
    "VpcEndpointPolicySupported": false,
    "AcceptanceRequired": false,
    "ManagesVpcEndpoints": false,
    "Tags": [],
    "PrivateDnsNameVerificationState": "verified"
  },
  {
    "ServiceName": "com.amazonaws.us-west-1.redshift-fips",
    "ServiceId": "vpce-svc-0390d7f5d17995946",
    "ServiceType": [
      {
        "ServiceType": "Interface"
      }
    ],
    "AvailabilityZones": [
      "us-west-1b",
      "us-west-1c"
    ],
    "Owner": "amazon",
    "BaseEndpointDnsNames": [
      "redshift-fips.us-west-1.vpce.amazonaws.com"
    ],
    "PrivateDnsName": "redshift-fips.us-west-1.amazonaws.com",
    "PrivateDnsNames": [
      {
        "PrivateDnsName": "redshift-fips.us-west-1.amazonaws.com"
      }
    ],
    "VpcEndpointPolicySupported": true,
    "AcceptanceRequired": false,
    "ManagesVpcEndpoints": false,
    "Tags": [],
    "PrivateDnsNameVerificationState": "verified"
  },
  {
    "ServiceName": "com.amazonaws.us-west-1.rekognition",
    "ServiceId": "vpce-svc-031e2c9c7b6a1c690",
    "ServiceType": [
      {
        "ServiceType": "Interface"
      }
    ],
    "AvailabilityZones": [
      "us-west-1b",
      "us-west-1c"
    ],
    "Owner": "amazon",
    "BaseEndpointDnsNames": [
      "rekognition.us-west-1.vpce.amazonaws.com"
    ],
    "PrivateDnsName": "rekognition.us-west-1.amazonaws.com",
    "PrivateDnsNames": [
      {
        "PrivateDnsName": "rekognition.us-west-1.amazonaws.com"
      }
    ],
    "VpcEndpointPolicySupported": true,
    "AcceptanceRequired": false,
    "ManagesVpcEndpoints": false,
    "Tags": [],
    "PrivateDnsNameVerificationState": "verified"
  },
  {
    "ServiceName": "com.amazonaws.us-west-1.rekognition-fips",
    "ServiceId": "vpce-svc-0413f588625bfa719",
    "ServiceType": [
      {
        "ServiceType": "Interface"
      }
    ],
    "AvailabilityZones": [
      "us-west-1b",
      "us-west-1c"
    ],
    "Owner": "amazon",
    "BaseEndpointDnsNames": [
      "rekognition-fips.us-west-1.vpce.amazonaws.com"
    ],
    "PrivateDnsName": "rekognition-fips.us-west-1.amazonaws.com",
    "PrivateDnsNames": [
      {
        "PrivateDnsName": "rekognition-fips.us-west-1.amazonaws.com"
      }
    ],
    "VpcEndpointPolicySupported": true,
    "AcceptanceRequired": false,
    "ManagesVpcEndpoints": false,
    "Tags": [],
    "PrivateDnsNameVerificationState": "verified"
  },
  {
    "ServiceName": "com.amazonaws.us-west-1.s3",
    "ServiceId": "vpce-svc-0ea0aa235172acd99",
    "ServiceType": [
      {
        "ServiceType": "Interface"
      }
    ],
    "AvailabilityZones": [
      "us-west-1b",
      "us-west-1c"
    ],
    "Owner": "amazon",
    "BaseEndpointDnsNames": [
      "s3.us-west-1.vpce.amazonaws.com"
    ],
    "VpcEndpointPolicySupported": true,
    "AcceptanceRequired": false,
    "ManagesVpcEndpoints": false,
    "Tags": []
  },
  {
    "ServiceName": "com.amazonaws.us-west-1.sagemaker.api",
    "ServiceId": "vpce-svc-0e3b8b0d576e4a2a9",
    "ServiceType": [
      {
        "ServiceType": "Interface"
      }
    ],
    "AvailabilityZones": [
      "us-west-1b",
      "us-west-1c"
    ],
    "Owner": "amazon",
    "BaseEndpointDnsNames": [
      "api.sagemaker.us-west-1.vpce.amazonaws.com"
    ],
    "PrivateDnsName": "api.sagemaker.us-west-1.amazonaws.com",
    "PrivateDnsNames": [
      {
        "PrivateDnsName": "api.sagemaker.us-west-1.amazonaws.com"
      }
    ],
    "VpcEndpointPolicySupported": true,
    "AcceptanceRequired": false,
    "ManagesVpcEndpoints": false,
    "Tags": [],
    "PrivateDnsNameVerificationState": "verified"
  },
  {
    "ServiceName": "com.amazonaws.us-west-1.sagemaker.featurestore-runtime",
    "ServiceId": "vpce-svc-01fbce04e7a7b6f3c",
    "ServiceType": [
      {
        "ServiceType": "Interface"
      }
    ],
    "AvailabilityZones": [
      "us-west-1b",
      "us-west-1c"
    ],
    "Owner": "amazon",
    "BaseEndpointDnsNames": [
      "featurestore-runtime.sagemaker.us-west-1.vpce.amazonaws.com"
    ],
    "PrivateDnsName": "featurestore-runtime.sagemaker.us-west-1.amazonaws.com",
    "PrivateDnsNames": [
      {
        "PrivateDnsName": "featurestore-runtime.sagemaker.us-west-1.amazonaws.com"
      }
    ],
    "VpcEndpointPolicySupported": true,
    "AcceptanceRequired": false,
    "ManagesVpcEndpoints": false,
    "Tags": [],
    "PrivateDnsNameVerificationState": "verified"
  },
  {
    "ServiceName": "com.amazonaws.us-west-1.sagemaker.runtime",
    "ServiceId": "vpce-svc-04072a4c5d80e0dfa",
    "ServiceType": [
      {
        "ServiceType": "Interface"
      }
    ],
    "AvailabilityZones": [
      "us-west-1b",
      "us-west-1c"
    ],
    "Owner": "amazon",
    "BaseEndpointDnsNames": [
      "runtime.sagemaker.us-west-1.vpce.amazonaws.com"
    ],
    "PrivateDnsName": "runtime.sagemaker.us-west-1.amazonaws.com",
    "PrivateDnsNames": [
      {
        "PrivateDnsName": "runtime.sagemaker.us-west-1.amazonaws.com"
      }
    ],
    "VpcEndpointPolicySupported": true,
    "AcceptanceRequired": false,
    "ManagesVpcEndpoints": false,
    "Tags": [],
    "PrivateDnsNameVerificationState": "verified"
  },
  {
    "ServiceName": "com.amazonaws.us-west-1.sagemaker.runtime-fips",
    "ServiceId": "vpce-svc-081e2240cd260d6f5",
    "ServiceType": [
      {
        "ServiceType": "Interface"
      }
    ],
    "AvailabilityZones": [
      "us-west-1b",
      "us-west-1c"
    ],
    "Owner": "amazon",
    "BaseEndpointDnsNames": [
      "runtime-fips.sagemaker.us-west-1.vpce.amazonaws.com"
    ],
    "PrivateDnsName": "runtime-fips.sagemaker.us-west-1.amazonaws.com",
    "PrivateDnsNames": [
      {
        "PrivateDnsName": "runtime-fips.sagemaker.us-west-1.amazonaws.com"
      }
    ],
    "VpcEndpointPolicySupported": false,
    "AcceptanceRequired": false,
    "ManagesVpcEndpoints": false,
    "Tags": [],
    "PrivateDnsNameVerificationState": "verified"
  },
  {
    "ServiceName": "com.amazonaws.us-west-1.secretsmanager",
    "ServiceId": "vpce-svc-02f6679653009f917",
    "ServiceType": [
      {
        "ServiceType": "Interface"
      }
    ],
    "AvailabilityZones": [
      "us-west-1b",
      "us-west-1c"
    ],
    "Owner": "amazon",
    "BaseEndpointDnsNames": [
      "secretsmanager.us-west-1.vpce.amazonaws.com"
    ],
    "PrivateDnsName": "secretsmanager.us-west-1.amazonaws.com",
    "PrivateDnsNames": [
      {
        "PrivateDnsName": "secretsmanager.us-west-1.amazonaws.com"
      }
    ],
    "VpcEndpointPolicySupported": true,
    "AcceptanceRequired": false,
    "ManagesVpcEndpoints": false,
    "Tags": [],
    "PrivateDnsNameVerificationState": "verified"
  },
  {
    "ServiceName": "com.amazonaws.us-west-1.securityhub",
    "ServiceId": "vpce-svc-012d5450ddafa95cf",
    "ServiceType": [
      {
        "ServiceType": "Interface"
      }
    ],
    "AvailabilityZones": [
      "us-west-1b",
      "us-west-1c"
    ],
    "Owner": "amazon",
    "BaseEndpointDnsNames": [
      "securityhub.us-west-1.vpce.amazonaws.com"
    ],
    "PrivateDnsName": "securityhub.us-west-1.amazonaws.com",
    "PrivateDnsNames": [
      {
        "PrivateDnsName": "securityhub.us-west-1.amazonaws.com"
      }
    ],
    "VpcEndpointPolicySupported": true,
    "AcceptanceRequired": false,
    "ManagesVpcEndpoints": false,
    "Tags": [],
    "PrivateDnsNameVerificationState": "verified"
  },
  {
    "ServiceName": "com.amazonaws.us-west-1.servicecatalog",
    "ServiceId": "vpce-svc-0c5a420c545a08043",
    "ServiceType": [
      {
        "ServiceType": "Interface"
      }
    ],
    "AvailabilityZones": [
      "us-west-1b",
      "us-west-1c"
    ],
    "Owner": "amazon",
    "BaseEndpointDnsNames": [
      "servicecatalog.us-west-1.vpce.amazonaws.com"
    ],
    "PrivateDnsName": "servicecatalog.us-west-1.amazonaws.com",
    "PrivateDnsNames": [
      {
        "PrivateDnsName": "servicecatalog.us-west-1.amazonaws.com"
      }
    ],
    "VpcEndpointPolicySupported": true,
    "AcceptanceRequired": false,
    "ManagesVpcEndpoints": false,
    "Tags": [],
    "PrivateDnsNameVerificationState": "verified"
  },
  {
    "ServiceName": "com.amazonaws.us-west-1.servicecatalog-appregistry",
    "ServiceId": "vpce-svc-062d4b5ddcb39daae",
    "ServiceType": [
      {
        "ServiceType": "Interface"
      }
    ],
    "AvailabilityZones": [
      "us-west-1b",
      "us-west-1c"
    ],
    "Owner": "amazon",
    "BaseEndpointDnsNames": [
      "servicecatalog-appregistry.us-west-1.vpce.amazonaws.com"
    ],
    "PrivateDnsName": "servicecatalog-appregistry.us-west-1.amazonaws.com",
    "PrivateDnsNames": [
      {
        "PrivateDnsName": "servicecatalog-appregistry.us-west-1.amazonaws.com"
      }
    ],
    "VpcEndpointPolicySupported": true,
    "AcceptanceRequired": false,
    "ManagesVpcEndpoints": false,
    "Tags": [],
    "PrivateDnsNameVerificationState": "verified"
  },
  {
    "ServiceName": "com.amazonaws.us-west-1.sns",
    "ServiceId": "vpce-svc-00aeb377121cd5841",
    "ServiceType": [
      {
        "ServiceType": "Interface"
      }
    ],
    "AvailabilityZones": [
      "us-west-1b",
      "us-west-1c"
    ],
    "Owner": "amazon",
    "BaseEndpointDnsNames": [
      "sns.us-west-1.vpce.amazonaws.com"
    ],
    "PrivateDnsName": "sns.us-west-1.amazonaws.com",
    "PrivateDnsNames": [
      {
        "PrivateDnsName": "sns.us-west-1.amazonaws.com"
      }
    ],
    "VpcEndpointPolicySupported": true,
    "AcceptanceRequired": false,
    "ManagesVpcEndpoints": false,
    "Tags": [],
    "PrivateDnsNameVerificationState": "verified"
  },
  {
    "ServiceName": "com.amazonaws.us-west-1.sqs",
    "ServiceId": "vpce-svc-066719d6b21c361aa",
    "ServiceType": [
      {
        "ServiceType": "Interface"
      }
    ],
    "AvailabilityZones": [
      "us-west-1b",
      "us-west-1c"
    ],
    "Owner": "amazon",
    "BaseEndpointDnsNames": [
      "sqs.us-west-1.vpce.amazonaws.com"
    ],
    "PrivateDnsName": "sqs.us-west-1.amazonaws.com",
    "PrivateDnsNames": [
      {
        "PrivateDnsName": "sqs.us-west-1.amazonaws.com"
      }
    ],
    "VpcEndpointPolicySupported": true,
    "AcceptanceRequired": false,
    "ManagesVpcEndpoints": false,
    "Tags": [],
    "PrivateDnsNameVerificationState": "verified"
  },
  {
    "ServiceName": "com.amazonaws.us-west-1.ssm",
    "ServiceId": "vpce-svc-0039038d504694533",
    "ServiceType": [
      {
        "ServiceType": "Interface"
      }
    ],
    "AvailabilityZones": [
      "us-west-1b",
      "us-west-1c"
    ],
    "Owner": "amazon",
    "BaseEndpointDnsNames": [
      "ssm.us-west-1.vpce.amazonaws.com"
    ],
    "PrivateDnsName": "ssm.us-west-1.amazonaws.com",
    "PrivateDnsNames": [
      {
        "PrivateDnsName": "ssm.us-west-1.amazonaws.com"
      }
    ],
    "VpcEndpointPolicySupported": true,
    "AcceptanceRequired": false,
    "ManagesVpcEndpoints": false,
    "Tags": [],
    "PrivateDnsNameVerificationState": "verified"
  },
  {
    "ServiceName": "com.amazonaws.us-west-1.ssm-contacts",
    "ServiceId": "vpce-svc-0e7a276ec313ad8b5",
    "ServiceType": [
      {
        "ServiceType": "Interface"
      }
    ],
    "AvailabilityZones": [
      "us-west-1b",
      "us-west-1c"
    ],
    "Owner": "amazon",
    "BaseEndpointDnsNames": [
      "ssm-contacts.us-west-1.vpce.amazonaws.com"
    ],
    "PrivateDnsName": "ssm-contacts.us-west-1.amazonaws.com",
    "PrivateDnsNames": [
      {
        "PrivateDnsName": "ssm-contacts.us-west-1.amazonaws.com"
      }
    ],
    "VpcEndpointPolicySupported": true,
    "AcceptanceRequired": false,
    "ManagesVpcEndpoints": false,
    "Tags": [],
    "PrivateDnsNameVerificationState": "verified"
  },
  {
    "ServiceName": "com.amazonaws.us-west-1.ssm-incidents",
    "ServiceId": "vpce-svc-080b376a849286545",
    "ServiceType": [
      {
        "ServiceType": "Interface"
      }
    ],
    "AvailabilityZones": [
      "us-west-1b",
      "us-west-1c"
    ],
    "Owner": "amazon",
    "BaseEndpointDnsNames": [
      "ssm-incidents.us-west-1.vpce.amazonaws.com"
    ],
    "PrivateDnsName": "ssm-incidents.us-west-1.amazonaws.com",
    "PrivateDnsNames": [
      {
        "PrivateDnsName": "ssm-incidents.us-west-1.amazonaws.com"
      }
    ],
    "VpcEndpointPolicySupported": true,
    "AcceptanceRequired": false,
    "ManagesVpcEndpoints": false,
    "Tags": [],
    "PrivateDnsNameVerificationState": "verified"
  },
  {
    "ServiceName": "com.amazonaws.us-west-1.ssmmessages",
    "ServiceId": "vpce-svc-0bf111c0337f85724",
    "ServiceType": [
      {
        "ServiceType": "Interface"
      }
    ],
    "AvailabilityZones": [
      "us-west-1b",
      "us-west-1c"
    ],
    "Owner": "amazon",
    "BaseEndpointDnsNames": [
      "ssmmessages.us-west-1.vpce.amazonaws.com"
    ],
    "PrivateDnsName": "ssmmessages.us-west-1.amazonaws.com",
    "PrivateDnsNames": [
      {
        "PrivateDnsName": "ssmmessages.us-west-1.amazonaws.com"
      }
    ],
    "VpcEndpointPolicySupported": true,
    "AcceptanceRequired": false,
    "ManagesVpcEndpoints": false,
    "Tags": [],
    "PrivateDnsNameVerificationState": "verified"
  },
  {
    "ServiceName": "com.amazonaws.us-west-1.states",
    "ServiceId": "vpce-svc-032e5ef0c066c0c88",
    "ServiceType": [
      {
        "ServiceType": "Interface"
      }
    ],
    "AvailabilityZones": [
      "us-west-1b",
      "us-west-1c"
    ],
    "Owner": "amazon",
    "BaseEndpointDnsNames": [
      "states.us-west-1.vpce.amazonaws.com"
    ],
    "PrivateDnsName": "states.us-west-1.amazonaws.com",
    "PrivateDnsNames": [
      {
        "PrivateDnsName": "states.us-west-1.amazonaws.com"
      }
    ],
    "VpcEndpointPolicySupported": true,
    "AcceptanceRequired": false,
    "ManagesVpcEndpoints": false,
    "Tags": [],
    "PrivateDnsNameVerificationState": "verified"
  },
  {
    "ServiceName": "com.amazonaws.us-west-1.storagegateway",
    "ServiceId": "vpce-svc-03d670bd803b10937",
    "ServiceType": [
      {
        "ServiceType": "Interface"
      }
    ],
    "AvailabilityZones": [
      "us-west-1b",
      "us-west-1c"
    ],
    "Owner": "amazon",
    "BaseEndpointDnsNames": [
      "storagegateway.us-west-1.vpce.amazonaws.com"
    ],
    "PrivateDnsName": "storagegateway.us-west-1.amazonaws.com",
    "PrivateDnsNames": [
      {
        "PrivateDnsName": "storagegateway.us-west-1.amazonaws.com"
      }
    ],
    "VpcEndpointPolicySupported": false,
    "AcceptanceRequired": false,
    "ManagesVpcEndpoints": false,
    "Tags": [],
    "PrivateDnsNameVerificationState": "verified"
  },
  {
    "ServiceName": "com.amazonaws.us-west-1.sts",
    "ServiceId": "vpce-svc-06cf62d19b34ef118",
    "ServiceType": [
      {
        "ServiceType": "Interface"
      }
    ],
    "AvailabilityZones": [
      "us-west-1b",
      "us-west-1c"
    ],
    "Owner": "amazon",
    "BaseEndpointDnsNames": [
      "sts.us-west-1.vpce.amazonaws.com"
    ],
    "PrivateDnsName": "sts.us-west-1.amazonaws.com",
    "PrivateDnsNames": [
      {
        "PrivateDnsName": "sts.us-west-1.amazonaws.com"
      }
    ],
    "VpcEndpointPolicySupported": true,
    "AcceptanceRequired": false,
    "ManagesVpcEndpoints": false,
    "Tags": [],
    "PrivateDnsNameVerificationState": "verified"
  },
  {
    "ServiceName": "com.amazonaws.us-west-1.sync-states",
    "ServiceId": "vpce-svc-0c7f8212fbdfab61c",
    "ServiceType": [
      {
        "ServiceType": "Interface"
      }
    ],
    "AvailabilityZones": [
      "us-west-1b",
      "us-west-1c"
    ],
    "Owner": "amazon",
    "BaseEndpointDnsNames": [
      "sync-states.us-west-1.vpce.amazonaws.com"
    ],
    "PrivateDnsName": "sync-states.us-west-1.amazonaws.com",
    "PrivateDnsNames": [
      {
        "PrivateDnsName": "sync-states.us-west-1.amazonaws.com"
      }
    ],
    "VpcEndpointPolicySupported": true,
    "AcceptanceRequired": false,
    "ManagesVpcEndpoints": false,
    "Tags": [],
    "PrivateDnsNameVerificationState": "verified"
  },
  {
    "ServiceName": "com.amazonaws.us-west-1.textract",
    "ServiceId": "vpce-svc-046b12ee2e870375f",
    "ServiceType": [
      {
        "ServiceType": "Interface"
      }
    ],
    "AvailabilityZones": [
      "us-west-1b",
      "us-west-1c"
    ],
    "Owner": "amazon",
    "BaseEndpointDnsNames": [
      "textract.us-west-1.vpce.amazonaws.com"
    ],
    "PrivateDnsName": "textract.us-west-1.amazonaws.com",
    "PrivateDnsNames": [
      {
        "PrivateDnsName": "textract.us-west-1.amazonaws.com"
      }
    ],
    "VpcEndpointPolicySupported": true,
    "AcceptanceRequired": false,
    "ManagesVpcEndpoints": false,
    "Tags": [],
    "PrivateDnsNameVerificationState": "verified"
  },
  {
    "ServiceName": "com.amazonaws.us-west-1.textract-fips",
    "ServiceId": "vpce-svc-0d88473cf0f3a0726",
    "ServiceType": [
      {
        "ServiceType": "Interface"
      }
    ],
    "AvailabilityZones": [
      "us-west-1b",
      "us-west-1c"
    ],
    "Owner": "amazon",
    "BaseEndpointDnsNames": [
      "textract-fips.us-west-1.vpce.amazonaws.com"
    ],
    "PrivateDnsName": "textract-fips.us-west-1.amazonaws.com",
    "PrivateDnsNames": [
      {
        "PrivateDnsName": "textract-fips.us-west-1.amazonaws.com"
      }
    ],
    "VpcEndpointPolicySupported": true,
    "AcceptanceRequired": false,
    "ManagesVpcEndpoints": false,
    "Tags": [],
    "PrivateDnsNameVerificationState": "verified"
  },
  {
    "ServiceName": "com.amazonaws.us-west-1.transcribe",
    "ServiceId": "vpce-svc-03c86b0a9704ce15e",
    "ServiceType": [
      {
        "ServiceType": "Interface"
      }
    ],
    "AvailabilityZones": [
      "us-west-1b",
      "us-west-1c"
    ],
    "Owner": "amazon",
    "BaseEndpointDnsNames": [
      "transcribe.us-west-1.vpce.amazonaws.com"
    ],
    "PrivateDnsName": "transcribe.us-west-1.amazonaws.com",
    "PrivateDnsNames": [
      {
        "PrivateDnsName": "transcribe.us-west-1.amazonaws.com"
      }
    ],
    "VpcEndpointPolicySupported": true,
    "AcceptanceRequired": false,
    "ManagesVpcEndpoints": false,
    "Tags": [],
    "PrivateDnsNameVerificationState": "verified"
  },
  {
    "ServiceName": "com.amazonaws.us-west-1.transfer",
    "ServiceId": "vpce-svc-0885703130bb2f2c2",
    "ServiceType": [
      {
        "ServiceType": "Interface"
      }
    ],
    "AvailabilityZones": [
      "us-west-1b",
      "us-west-1c"
    ],
    "Owner": "amazon",
    "BaseEndpointDnsNames": [
      "transfer.us-west-1.vpce.amazonaws.com"
    ],
    "PrivateDnsName": "transfer.us-west-1.amazonaws.com",
    "PrivateDnsNames": [
      {
        "PrivateDnsName": "transfer.us-west-1.amazonaws.com"
      }
    ],
    "VpcEndpointPolicySupported": false,
    "AcceptanceRequired": false,
    "ManagesVpcEndpoints": false,
    "Tags": [],
    "PrivateDnsNameVerificationState": "verified"
  },
  {
    "ServiceName": "com.amazonaws.us-west-1.transfer.server",
    "ServiceId": "vpce-svc-013ce7d49a5b46ea5",
    "ServiceType": [
      {
        "ServiceType": "Interface"
      }
    ],
    "AvailabilityZones": [
      "us-west-1b",
      "us-west-1c"
    ],
    "Owner": "amazon",
    "BaseEndpointDnsNames": [
      "server.transfer.us-west-1.vpce.amazonaws.com"
    ],
    "PrivateDnsName": "*.server.transfer.us-west-1.amazonaws.com",
    "PrivateDnsNames": [
      {
        "PrivateDnsName": "*.server.transfer.us-west-1.amazonaws.com"
      }
    ],
    "VpcEndpointPolicySupported": false,
    "AcceptanceRequired": false,
    "ManagesVpcEndpoints": false,
    "Tags": [],
    "PrivateDnsNameVerificationState": "verified"
  },
  {
    "ServiceName": "com.amazonaws.us-west-1.translate",
    "ServiceId": "vpce-svc-0cf38ccdaa78d5d1d",
    "ServiceType": [
      {
        "ServiceType": "Interface"
      }
    ],
    "AvailabilityZones": [
      "us-west-1b",
      "us-west-1c"
    ],
    "Owner": "amazon",
    "BaseEndpointDnsNames": [
      "translate.us-west-1.vpce.amazonaws.com"
    ],
    "PrivateDnsName": "translate.us-west-1.amazonaws.com",
    "PrivateDnsNames": [
      {
        "PrivateDnsName": "translate.us-west-1.amazonaws.com"
      }
    ],
    "VpcEndpointPolicySupported": true,
    "AcceptanceRequired": false,
    "ManagesVpcEndpoints": false,
    "Tags": [],
    "PrivateDnsNameVerificationState": "verified"
  },
  {
    "ServiceName": "com.amazonaws.us-west-1.xray",
    "ServiceId": "vpce-svc-01f447ce40a47ac57",
    "ServiceType": [
      {
        "ServiceType": "Interface"
      }
    ],
    "AvailabilityZones": [
      "us-west-1b",
      "us-west-1c"
    ],
    "Owner": "amazon",
    "BaseEndpointDnsNames": [
      "xray.us-west-1.vpce.amazonaws.com"
    ],
    "PrivateDnsName": "xray.us-west-1.amazonaws.com",
    "PrivateDnsNames": [
      {
        "PrivateDnsName": "xray.us-west-1.amazonaws.com"
      }
    ],
    "VpcEndpointPolicySupported": true,
    "AcceptanceRequired": false,
    "ManagesVpcEndpoints": false,
    "Tags": [],
    "PrivateDnsNameVerificationState": "verified"
  }
]